[
  {
    "SqlConfigurationName": "PersonTest",
    "ConnectionString": "Host=localhost;Username=postgres;Password=Zelij@h1996$;Database=contact",
    "SqlConfigurationJobs": [
      {
        "BeforeTestSqlFile": "C:\\repos\\PostgreTestPrep\\PostgreTestPrep.ScratchTest\\SqlConfiguration\\PersonTest_Setup.sql",
        "AfterTestSqlFile": "C:\\repos\\PostgreTestPrep\\PostgreTestPrep.ScratchTest\\SqlConfiguration\\PersonTest_Teardown.sql",
        "SortOrder": "0"
      },
      {
        "BeforeTestSqlFile": "C:\\repos\\PostgreTestPrep\\PostgreTestPrep.ScratchTest\\SqlConfiguration\\PersonTest_States_Setup.sql",
        "AfterTestSqlFile": "C:\\repos\\PostgreTestPrep\\PostgreTestPrep.ScratchTest\\SqlConfiguration\\\\PersonTest_States_Teardown.sql",
        "SortOrder": "1"
      }
    ]
  }
]
